51.095178849405066;16.940980693710344;Apteka Drohobycka;Polska;województwo dolnośląskie;Wrocław;Stanisława Kunickiego;37A;;54-616;
51.113219733633215;16.954230806243913;Apteka przy Polomarkecie;Polska;województwo dolnośląskie;Wrocław;Budziszyńska;;;54-436;
51.13021672101954;17.04347326458742;Apteka Acer;Polska;województwo dolnośląskie;Wrocław;Zakładowa;11e;;50-231;
51.122772891047255;17.036365410697954;Apteka Przy Przychodni;Polska;województwo dolnośląskie;Wrocław;Świętego Wincentego;39;;50-251;
51.17739029333153;17.000085851562517;Apteka Lege Artis;Polska;województwo dolnośląskie;Wrocław;;;;51-180;
51.14753051462912;16.86389400662233;Apteka Ogrodowa;Polska;województwo dolnośląskie;Wrocław;Pawła Eluarda;29;;54-019;
51.125203798736145;16.97126283348848;Apteka Helvetia;Polska;województwo dolnośląskie;Wrocław;bulwar Ikara;20;;54-130;
51.157974888312104;17.033055564773576;Hospicjum Bonifratrów im. św. Jana Bożego;Polska;województwo dolnośląskie;Wrocław;Poświęcka;8a;;51-128;
51.05377543794696;16.978928586853044;Apteka Dbam o Zdrowie;Polska;województwo dolnośląskie;Wrocław;Aleja Karkonoska;83;;53-015;
51.11345547154275;17.113285800827043;Olimpia;Polska;województwo dolnośląskie;Wrocław;Marca Polo;;;51-501;
51.159239896769414;17.139035007370012;Aktywna;Polska;województwo dolnośląskie;Wrocław;Zatorska;55;;51-215;
51.092941774228564;16.991695901763933;Biogenes;Polska;województwo dolnośląskie;Wrocław;Plac Bzowy;1;;53-224;
51.12695114503796;16.965850135696428;Apteka Da Vinci;Polska;województwo dolnośląskie;Wrocław;bulwar Dedala;20;;54-130;
51.12229140800278;17.02776624859621;MAK;Polska;województwo dolnośląskie;Wrocław;Plac Stanisława Staszica;;;50-223;
51.10854513931466;17.03544273079683;Apteka Ziko;Polska;województwo dolnośląskie;Wrocław;Łaciarska;;;50-105;
51.12592092573616;16.991331121337907;Apteka Białowieska;Polska;województwo dolnośląskie;Wrocław;Białowieska;74a;;54-234;
51.11324667516951;16.954166433227556;Prima;Polska;województwo dolnośląskie;Wrocław;Budziszyńska;;;54-436;
51.10675331066695;17.14359476269533;Na Wojnowie;Polska;województwo dolnośląskie;Wrocław;Strachocińska;;;51-519;
51.14203819467263;17.08814813793947;Dbam O Zdrowie;Polska;województwo dolnośląskie;Wrocław;Bolesława Krzywoustego;126;;51-421;
51.12884318729824;17.03319503964235;Silesia 3;Polska;województwo dolnośląskie;Wrocław;Józefa Ignacego Kraszewskiego;21;;50-229;
51.15430078411713;17.044331571472185;Lege Artis;Polska;województwo dolnośląskie;Wrocław;Henryka Michała Kamieńskiego;217 U1;;51-126;
51.11216900146817;16.960904142272966;Niezapominajka;Polska;województwo dolnośląskie;Wrocław;Strzegomska;;;54-431;
51.11691057776727;17.052077791107195;Katedralna;Polska;województwo dolnośląskie;Wrocław;Henryka Sienkiewicza;54-56;;50-349;
51.120857030168864;17.031263849151628;Dr. Max;Polska;województwo dolnośląskie;Wrocław;Pomorska;51;;50-217;
51.09848709654207;17.005106946838396;Dbam O Zdrowie;Polska;województwo dolnośląskie;Wrocław;Ołowiana;11;;53-434;
51.11866160507806;16.998369237792986;Ars Medica;Polska;województwo dolnośląskie;Wrocław;Legnicka;;;53-616;
51.12447992685798;16.98274805249025;Dbam O Zdrowie;Polska;województwo dolnośląskie;Wrocław;Kwiska;1;;54-210;
51.13550175160881;16.973092100036638;Dbam O Zdrowie;Polska;województwo dolnośląskie;Wrocław;Kolista;10;;54-152;
51.076726483158225;17.019912740600603;Przy Weigla;Polska;województwo dolnośląskie;Wrocław;Rudolfa Weigla;10;;53-114;
51.07500083081712;17.004549047363298;Dbam O Zdrowie;Polska;województwo dolnośląskie;Wrocław;Księdza Piotra Wawrzyniaka;2;;53-020;
51.06378252186828;16.98377802075197;Calendula;Polska;województwo dolnośląskie;Wrocław;Wałbrzyska;3b;;52-314;
51.10618745560938;16.94708540142824;Dbam O Zdrowie;Polska;województwo dolnośląskie;Wrocław;Graniczna;2a;;54-610;
51.06712672534701;16.997339269531267;Przyjaźni;Polska;województwo dolnośląskie;Wrocław;Przyjaźni;20;;53-029;
51.09592002514269;17.056734105957048;Ziko;Polska;województwo dolnośląskie;Wrocław;Krakowska;;;50-425;
51.09304958756264;17.025384446990984;Aronia;Polska;województwo dolnośląskie;Wrocław;Komandorska;147;;53-344;
51.09247008793671;17.035834333313005;Wratislavia;Polska;województwo dolnośląskie;Wrocław;Ciepła;9-11;;50-524;
51.09947750330965;17.041627904785173;Medicover;Polska;województwo dolnośląskie;Wrocław;Generała Jana Henryka Dąbrowskiego;44;;50-457;
51.07694218517586;17.034289380920427;Przy Borowskiej;Polska;województwo dolnośląskie;Wrocław;Świeradowska;3;;50-559;
51.08441024736045;17.047335645568864;Dolnośląska Grupa Apteczna DGA 23;Polska;województwo dolnośląskie;Wrocław;Bardzka;1;;50-516;
51.09996259276117;17.026607534301775;Dom Leków;Polska;województwo dolnośląskie;Wrocław;Powstańców Śląskich;5;;53-332;
51.10562159362441;17.022573491943376;Dom leków;Polska;województwo dolnośląskie;Wrocław;Sądowa;;;50-045;
51.11278866691729;17.05967380703737;Dbam O Zdrowie;Polska;województwo dolnośląskie;Wrocław;Plac Grunwaldzki;22;;50-363;
51.11052550068604;17.01450540722658;Braniborska;Polska;województwo dolnośląskie;Wrocław;Braniborska;;;53-680;
51.1276850781057;17.049266836059587;Ziko;Polska;województwo dolnośląskie;Wrocław;Ustronie;1-3;;50-302;
51.10020513557829;17.039310476196306;Silesia;Polska;województwo dolnośląskie;Wrocław;Dworcowa;32;;50-456;
51.121409237236556;17.015878698242204;Dbam O Zdrowie;Polska;województwo dolnośląskie;Wrocław;Długa;37-47;;53-633;
51.12421057628657;17.033838769805925;Dbam O Zdrowie;Polska;województwo dolnośląskie;Wrocław;Plac Powstańców Wielkopolskich;2;;50-232;
51.10830264025391;17.041134378326433;Dbam O Zdrowie;Polska;województwo dolnośląskie;Wrocław;Podwale;;;50-414;
51.06014138046798;17.005300065887468;Apteka „Arnika”;Polska;województwo dolnośląskie;Wrocław;Zwycięska;29;;53-033;
51.12682321055726;16.97649314106752;Apteka Malva;Polska;województwo dolnośląskie;Wrocław;Eugeniusza Horbaczewskiego;4-6;;54-130;
51.1254462091086;17.052367469680803;Arkadia;Polska;województwo dolnośląskie;Wrocław;Karola Miarki;1;;50-306;
51.106052727193735;17.043516179931657;ZA FOSĄ;Polska;województwo dolnośląskie;Wrocław;Zygmunta Krasińskiego;;;50-450;
51.09497333948314;16.97775914372255;Apteka Pulsantis;Polska;województwo dolnośląskie;Wrocław;Aleksandra Ostrowskiego;3;;53-238;
51.14334402603642;17.13129951657106;Apteka Rumiankowa ;Polska;województwo dolnośląskie;Wrocław;Inflancka;39;;51-354;
51.10218585429028;16.947750589263933;Muchoborska;Polska;województwo dolnośląskie;Wrocław;Leopolda Tyrmanda;9;;54-608;
51.09719178764616;16.949987551582353;Apteka Krzemieniecka;Polska;województwo dolnośląskie;Wrocław;Krzemieniecka;122;;54-613;
51.14972288508442;16.942860922229784;Apteka MILENIUM;Polska;województwo dolnośląskie;Wrocław;Fromborska;47;;54-111;
51.097567414117734;17.018646737945573;SŁONECZNA;Polska;województwo dolnośląskie;Wrocław;Władysława Grabskiego;;;53-535;
51.097139570271736;17.031666180503862;Promyk Słońca;Polska;województwo dolnośląskie;Wrocław;Swobodna;8a;;50-088;
51.0952192774789;17.036799928558366;LEGE ARTIS;Polska;województwo dolnośląskie;Wrocław;Joannitów;22;;50-525;
51.11131021224418;17.017407557380693;Ziemowita;Polska;województwo dolnośląskie;Wrocław;Ziemowita;1-9;;53-678;
51.1016889983017;17.029785951984422;Ziko;Polska;województwo dolnośląskie;Wrocław;Świdnicka;;;50-030;
51.12787865942522;17.03420891464998;Rubus;Polska;województwo dolnośląskie;Wrocław;Lucjana Siemieńskiego;14;;50-228;
51.10987886140553;17.027143976104753;Dr. Max;Polska;województwo dolnośląskie;Wrocław;Psie Budy;5-6;;50-080;
51.06692109077409;17.078095218551653;NA RONDZIE;Polska;województwo dolnośląskie;Wrocław;Pionierów;2;;52-112;
51.092497883869484;17.035798123491304;WRATISLAVIA;Polska;województwo dolnośląskie;Wrocław;Ciepła;9-11;;50-524;
51.11069599977024;17.05590932668497;SILESIA;Polska;województwo dolnośląskie;Wrocław;Plac Grunwaldzki;8;;50-384;
51.11786565353445;17.000934100163477;DBAM O ZDROWIE;Polska;województwo dolnośląskie;Wrocław;Słubicka;18;;53-615;
51.111104774025065;16.96156933010866;Werbena;Polska;województwo dolnośląskie;Wrocław;Szwedzka;1b;;54-401;
51.11814977318967;16.95429517926027;Nova;Polska;województwo dolnośląskie;Wrocław;Rogowska;52;;54-440;
51.116479545481816;17.00246765316774;VITRUM;Polska;województwo dolnośląskie;Wrocław;Głogowska;;;53-622;
51.099376442366584;17.02770187557985;DGA 12;Polska;województwo dolnośląskie;Wrocław;Swobodna;;;50-087;
51.13751461692844;17.055832883728044;POD JEMIOŁĄ ;Polska;województwo dolnośląskie;Wrocław;Tadeusza Micińskiego;;;51-152;
51.12197827298002;16.92208184899141;RUMIANKOWA;Polska;województwo dolnośląskie;Wrocław;Objazdowa;40;;54-513;
51.14687850301323;16.866383474751387;OGRODOWA;Polska;województwo dolnośląskie;Wrocław;Pawła Eluarda;7;;54-019;
51.14321610076856;16.889715353480142;ZŁOTNICKA;Polska;województwo dolnośląskie;Wrocław;Złotnicka;4g;;54-029;
51.14571482572356;16.867794921873383;POD ŚW. ANTONIM;Polska;województwo dolnośląskie;Wrocław;Średzka;33;;54-001;
51.13989425613863;16.963484172711105;SIELSKA;Polska;województwo dolnośląskie;Wrocław;Sielska;5a;;54-144;
51.127227750732935;16.945823761227302;SARBINOWSKA;Polska;województwo dolnośląskie;Wrocław;Sarbinowska;15;;54-320;
51.12934143464411;16.970141670120256;APTEKA OGÓLNODOSTĘPNA;Polska;województwo dolnośląskie;Wrocław;Lotnicza;;;54-155;
51.14523371400481;16.948228022468584;NA DOBRE I NA ZŁE;Polska;województwo dolnośląskie;Wrocław;Pilczycka;196a;;54-144;
51.130358111877705;16.9655389994507;TĘCZOWA;Polska;województwo dolnośląskie;Wrocław;Jerzego Bajana;1;;54-129;
51.12645623863349;16.971119335306184;IKAR;Polska;województwo dolnośląskie;Wrocław;bulwar Ikara;23;;54-130;
51.12644950517646;16.971115311992662;RADIX;Polska;województwo dolnośląskie;Wrocław;bulwar Ikara;23;;54-130;
51.11452974764522;16.959251901519792;LEGE ARTIS NOWODWORSKA;Polska;województwo dolnośląskie;Wrocław;Wojrowicka;;;54-436;
51.11731466688297;16.954359552276628;APTEKA POD WĘŻEM;Polska;województwo dolnośląskie;Wrocław;Rogowska;42;;54-440;
51.10886032461076;16.961809745910386;GRECKA;Polska;województwo dolnośląskie;Wrocław;Szkocka;;;54-402;
51.11717864439074;16.951583397250033;MAGNOLIA;Polska;województwo dolnośląskie;Wrocław;Zemska;16;;54-438;
51.11425192001306;17.002153834713;POD AKACJAMI;Polska;województwo dolnośląskie;Wrocław;Bolesławiecka;4;;53-614;
51.1159739960987;17.007794131052947;HETMAŃSKA;Polska;województwo dolnośląskie;Wrocław;Stefana Czarnieckiego;;;53-624;
51.10039377911193;16.950647375000017;ORCHIDEA;Polska;województwo dolnośląskie;Wrocław;Marka Hłaski;42;;54-608;
51.1004964597924;17.00682092995862;MNISZEK;Polska;województwo dolnośląskie;Wrocław;Grabiszyńska;96;;53-437;
51.100161343219355;17.00151815117647;OSTROBRAMSKA;Polska;województwo dolnośląskie;Wrocław;Grabiszyńska;133;;53-439;
51.09543857752348;17.00838624727794;HIBISKUS;Polska;województwo dolnośląskie;Wrocław;Jemiołowa;50-54;;53-426;
51.068663899115975;16.99904515446474;KRZYCKA;Polska;województwo dolnośląskie;Wrocław;Przyjaźni;87;;53-030;
51.06616013234856;16.994613168946557;ANTIDOTUM;Polska;województwo dolnośląskie;Wrocław;Przyjaźni;34e;;53-030;
51.075946240119386;16.959466478240984;Na zdrowie;Polska;województwo dolnośląskie;Wrocław;Honoriusza Balzaka;14;;52-437;
51.07807010101467;16.963799097799324;ALPEJSKA;Polska;województwo dolnośląskie;Wrocław;Ludwika Solskiego;;;52-412;
51.05931245047063;16.9739410273163;CZEKOLADOWA;Polska;województwo dolnośląskie;Wrocław;Czekoladowa;58a;;52-326;
51.05668314597311;17.024861161565354;RODZINNA;Polska;województwo dolnośląskie;Wrocław;Bartłomieja Strachowskiego;2f;;52-210;
51.056907245465965;17.02617202501915;OŁTASZYŃSKA;Polska;województwo dolnośląskie;Wrocław;Uczniowska;37;;52-222;
51.091485953451816;17.040233407329765;HIPOKRATES;Polska;województwo dolnośląskie;Wrocław;Gajowa;;;50-520;
51.094720662097785;17.010841509712236;JANTAROWA;Polska;województwo dolnośląskie;Wrocław;Gajowicka;96a;;53-422;
51.07280398871303;16.99143198426941;RÓŻA WIATRÓW;Polska;województwo dolnośląskie;Wrocław;Róży Wiatrów;11b;;53-023;
51.09764063473343;17.013036512549434;ARKA;Polska;województwo dolnośląskie;Wrocław;Skwierzyńska;28b;;53-522;
51.080744049768974;17.015924766367107;POD JAWORAMI;Polska;województwo dolnośląskie;Wrocław;Sudecka;147b;;53-128;
51.08807784004935;17.017289251275088;WRATISLAVIA;Polska;województwo dolnośląskie;Wrocław;Sztabowa;76;;53-310;
51.091877012580376;16.98605508145704;AGAT;Polska;województwo dolnośląskie;Wrocław;Aleja Generała Józefa Hallera;151;;53-201;
51.087189853860714;17.01360753904453;AKSAMITNA;Polska;województwo dolnośląskie;Wrocław;Powstańców Śląskich;146;;53-315;
51.05215009415712;17.059373399627702;VIVALDIEGO;Polska;województwo dolnośląskie;Wrocław;Antonia Vivaldiego;2c;;52-129;
51.076011963042625;17.08415701092531;KSIĘŻĘCA;Polska;województwo dolnośląskie;Wrocław;Chorzowska;2;;52-023;
51.06026337282994;17.083072732570372;APTEKA BROCHOWSKA;Polska;województwo dolnośląskie;Wrocław;Chińska;2a;;52-118;
51.08677409616055;17.04777821005632;DR ZDROWIE;Polska;województwo dolnośląskie;Wrocław;Hubska;102-118;;50-505;
51.07305890452566;17.03657940027051;WYSOKOGÓRSKA;Polska;województwo dolnośląskie;Wrocław;Wandy Rutkiewicz;11;;50-571;
51.07847903294515;17.047324916732805;REMEDIUM MAK;Polska;województwo dolnośląskie;Wrocław;Krynicka;;;50-555;
51.1093240817637;17.03111200080798;POD RATUSZEM;Polska;województwo dolnośląskie;Wrocław;;18;;;
51.11088509631744;17.037363831254652;MC COY'S;Polska;województwo dolnośląskie;Wrocław;Kotlarska;;;50-150;
51.12989192123749;17.036911880182174;WRATISLAVIA;Polska;województwo dolnośląskie;Wrocław;Trzebnicka;84;;50-231;
51.1228042392681;17.036459278717075;ŚW. WINCENTEGO;Polska;województwo dolnośląskie;Wrocław;Świętego Wincentego;39;;50-251;
51.12064401803038;17.03218523381065;MIESZCZAŃSKA;Polska;województwo dolnośląskie;Wrocław;Ludwika Rydygiera;44;;50-249;
51.100626209779286;17.045530296624293;PUŁASKA;Polska;województwo dolnośląskie;Wrocław;Generała Kazimierza Pułaskiego;30;;50-446;
51.09983458353917;17.050028583419817;CZTERY PORY ROKU;Polska;województwo dolnośląskie;Wrocław;Komuny Paryskiej;79;;50-452;
51.11985240030431;17.057705760583303;REMEDIUM;Polska;województwo dolnośląskie;Wrocław;Bolesława Prusa;65;;50-316;
51.115250407898834;17.06046237648775;PIASTOWSKA;Polska;województwo dolnośląskie;Wrocław;Piastowska;36;;50-361;
51.12699910558043;17.05252873893528;NA DAMROTA;Polska;województwo dolnośląskie;Wrocław;Księdza Konstantego Damrota;7;;50-306;
51.12267524803827;17.054545423400896;RUMIANEK;Polska;województwo dolnośląskie;Wrocław;Elizy Orzeszkowej;59-61;;50-311;
51.102725586424825;17.09685450673271;Apteka Leków Gotowych;Polska;województwo dolnośląskie;Wrocław;Karola Olszewskiego;21;;51-642;
51.10161804224565;17.10264775925816;POD JAWOREM PHARMA;Polska;województwo dolnośląskie;Wrocław;Karola Olszewskiego;73;;51-642;
51.11552149447753;17.067244341981905;AMBRA;Polska;województwo dolnośląskie;Wrocław;Odona Bujwida;22-26;;50-368;
51.160624237801045;17.132651004144805;ZIELONA;Polska;województwo dolnośląskie;Wrocław;Paryska;1a;;51-215;
51.15154164906911;17.13136388958742;Express Pharm II;Polska;województwo dolnośląskie;Wrocław;Bierutowska;63;;51-317;
51.107885;17.038538000000017;KARŁOWICKA;Polska;województwo dolnośląskie;Wrocław;Błogosławionego Czesława;;;50-124;
51.141261025285374;17.024824621519997;BEZPIECZNA;Polska;województwo dolnośląskie;Wrocław;Bezpieczna;5;;51-114;
51.13663273690375;17.037014505279558;ŻMIGRODZKA;Polska;województwo dolnośląskie;Wrocław;Żmigrodzka;19;;51-118;
51.1363297971305;17.039074441802995;MULTI LEK;Polska;województwo dolnośląskie;Wrocław;Aleja Jana Kasprowicza;16;;51-137;
51.14839998789838;17.0421998858576;LOBELIA;Polska;województwo dolnośląskie;Wrocław;Henryka Michała Kamieńskiego;134;;51-124;
51.13231734063778;17.066046735656755;AMICUS;Polska;województwo dolnośląskie;Wrocław;Aleja Marcina Kromera;;;51-163;
51.139706416791064;16.96350049276498;ZIKO Apteka;Polska;województwo dolnośląskie;Wrocław;Dokerska;22;;54-142;
51.076038926266236;17.04197659195711;DGA 11;Polska;województwo dolnośląskie;Wrocław;Strońska;;;50-540;
51.09225698523062;17.028500503314035;DGA 10;Polska;województwo dolnośląskie;Wrocław;Pabianicka;25;;53-339;
51.12237895074773;16.98974861801912;DGA 1;Polska;województwo dolnośląskie;Wrocław;Legnicka;62a;;54-204;
51.112126062386004;17.039667209995287;Tumska;Polska;województwo dolnośląskie;Wrocław;Piaskowa;11;;50-158;
51.091469564512;17.01873227797512;Aloes;Polska;województwo dolnośląskie;Wrocław;Powstańców Śląskich;;;53-314;
51.1464872933477;17.127683898818987;Poleska;Polska;województwo dolnośląskie;Wrocław;Kiełczowska;51e;;51-315;
